[
    {
        "city": "南开", 
        "id": "beordle", 
        "img1": "http://wx.qlogo.cn/mmhead/ver_1/mug0rCOjdY4VgBDvmBnNtSILvep3A8icyA7E4aFYj6iac6cepwVwnpGC8IMYCVhV2mORVusWOMItPotyvQoarAAQ/0", 
        "img2": "http://wx.qlogo.cn/mmhead/ver_1/mug0rCOjdY4VgBDvmBnNtSILvep3A8icyA7E4aFYj6iac6cepwVwnpGC8IMYCVhV2mORVusWOMItPotyvQoarAAQ/132", 
        "nickName": "金棟", 
        "province": "天津", 
        "sign": "hans猫，叫什么叫！时光鸡，真他妈是个鸡。", 
        "wxid": "wxid_4779877798912"
    }, 
    {
        "city": "广州", 
        "id": "vilvano", 
        "img1": "http://wx.qlogo.cn/mmhead/ver_1/wyKXibwib3eibLtwFTLM4oA3m2scj8zQEfPkMFtAFm779fIKfniacXj4WfvzUpmiauMUgwXDPU02hGycSHObMP5Aft9nwvI3wLM8zQhgHrVzfRlk/0", 
        "img2": "http://wx.qlogo.cn/mmhead/ver_1/wyKXibwib3eibLtwFTLM4oA3m2scj8zQEfPkMFtAFm779fIKfniacXj4WfvzUpmiauMUgwXDPU02hGycSHObMP5Aft9nwvI3wLM8zQhgHrVzfRlk/132", 
        "nickName": "尧", 
        "province": "广东", 
        "sign": "真的未填写", 
        "wxid": "wxid_0356393563412"
    }, 
    {
        "city": "Guangzhou", 
        "id": "xuanpeng2333", 
        "img1": "http://wx.qlogo.cn/mmhead/ver_1/PqU5UIn273Bb43Vb2Z1hnIiateaR3kOmCv44suszQoUEaMIHN5RicTRB3jYriaFSw5iamdiaVDH6gSkJHN17u4tibQPFwjPiacticvibIcwGqd0MY4DY/0", 
        "img2": "http://wx.qlogo.cn/mmhead/ver_1/PqU5UIn273Bb43Vb2Z1hnIiateaR3kOmCv44suszQoUEaMIHN5RicTRB3jYriaFSw5iamdiaVDH6gSkJHN17u4tibQPFwjPiacticvibIcwGqd0MY4DY/96", 
        "nickName": "夜里孤灯", 
        "province": "Guangdong", 
        "sign": "人一定要狂妄", 
        "wxid": "wxid_isptmdmx9y4n21"
    },
        {
      "id": "lyp2718",
      "img1": "http://wx.qlogo.cn/mmhead/ver_1/45clVhbIjqyGkJx5TV9EsA6HvOeHIfnibRUvqUHutXpG3my5KUE2Ibqg1KGvDSopzdAWqMN7HmuzStia2RibmG1TzDLlEDNDkgXfC4Fwibf22RA/0",
      "img2": "http://wx.qlogo.cn/mmhead/ver_1/45clVhbIjqyGkJx5TV9EsA6HvOeHIfnibRUvqUHutXpG3my5KUE2Ibqg1KGvDSopzdAWqMN7HmuzStia2RibmG1TzDLlEDNDkgXfC4Fwibf22RA/96",
      "nickName": "刘云鹏",
      "wxid": "liuyunpeng806186"
    },
    {
      "city": "Hangzhou",
      "id": "mcgzman",
      "img1": "http://wx.qlogo.cn/mmhead/ver_1/1Vx04TbWpSDE1xQzE4RibI2sNB17apQLNibGRxmctt1JxLQdy5TblAGKtvqHy1PZjU08G91knTxIwOccicriah93ITmomvy4drRKBTYEsoLT6b4/0",
      "img2": "http://wx.qlogo.cn/mmhead/ver_1/1Vx04TbWpSDE1xQzE4RibI2sNB17apQLNibGRxmctt1JxLQdy5TblAGKtvqHy1PZjU08G91knTxIwOccicriah93ITmomvy4drRKBTYEsoLT6b4/96",
      "nickName": "hannibal＇ 36Kr",
      "province": "Zhejiang",
      "sign": "Build A Life 自律",
      "wxid": "haoren767249"
    },
    {
      "id": "Winnie19950111",
      "nickName": "Miss🍒🍒",
      "wxid": "wxid_9348083481011"
    },
    {
      "city": "",
      "id": "cc273750151",
      "img1": "http://wx.qlogo.cn/mmhead/ver_1/x1jIOq2dx5bpNZn1KMAEsDn4MTqWVpEqePVke3aYY2s10aBHYVByqmdcQE2dEs31cp0ObicjfFy9AqEvtxwSELg/0",
      "img2": "http://wx.qlogo.cn/mmhead/ver_1/x1jIOq2dx5bpNZn1KMAEsDn4MTqWVpEqePVke3aYY2s10aBHYVByqmdcQE2dEs31cp0ObicjfFy9AqEvtxwSELg/96",
      "nickName": "404",
      "province": "Aruba",
      "sign": "抱歉 微信暂时不用了",
      "wxid": "qq273750151"
    },
    {
      "id": "meomaomao",
      "nickName": "猫猫群助手",
      "wxid": "gh_2b14a9fa29e5"
    }
]